{"success":true,"data":[{"id":"64900","title":"Not explicitly mentioned in the provided text.","description":"Grade:\nG3\nVacancy no.:\nDC/Karachi/P/2025/24\nPublication date: 25-Nov-2025\nApplication deadline (\nmidnight local time\n): 07-Dec-2025\nJob ID:\n13394\nDepartment:\nRO-Asia and the Pacific\nOrganization Unit:\nCO-Islamabad\nLocation:\nKarachi\nContract type:\nFixed Term\nContract duration:\n12 months\nUnder article 4.2, paragraph (e) of the Staff Regulations, the filling of vacancies in technical cooperation projects does not fall under Annex I of the Staff Regulations and is made by direct selection by the Director-General.\nIn order to support the best informed process in the filling of the above-mentioned vacancy by direct selection, the ILO invites interested candidates to submit their application online by the above date.\nThe following are eligible to apply:\nILO Internal candidates in accordance with paragraphs 31 and 32 of Annex I of the Staff Regulations.\nExternal candidates*\n*The recruitment process for General Service positions is subject to specific local recruitment criteria.\nThe ILO may only offer a contract to persons who have a valid residency status, work permit liscence in Pakistan.\nThe ILO values diversity among its staff and welcomes applications from qualified female candidates. We also encourage applicants with disabilities. If you are unable to complete our online application form due to a disability, please send an email to\nilojobs@ilo.org\n.\nTechnical cooperation appointments are not expected to lead to a career in the ILO and they do not carry any expectation of renewal or conversion to any other type of appointment in the Organization.\nA one-year fixed-term contract will be given.\nExtensions of technical cooperation contracts are subject to various elements including the following: availability of funds, continuing need of the functions and satisfactory conduct and performance.\n*Conditions of employment for external candidates: In conformity with existing ILO practice, the appointment of an external candidate will normally be made at the first step of this grade.","job_labels":"Technical Cooperation, Recruitment Process, Contract Management, Diversity And Inclusion, Eligibility Criteria, Fixed-Term Employment, Residency Status, Performance Evaluation, Organizational Regulations, Application Process, Candidate Selection, Local Recruitment Criteria, Staff Regulations, Project Support","short_agency":"ILO","long_agency":"International Labour Organization","duty_station":"Karachi","duty_country":"Pakistan","up_grade":"G3","posting_date":"2025-11-25T00:00:00","apply_until":"2025-12-07T23:59:59","url":"https://jobs.ilo.org/job/Senior-Driver/13394-en_GB","is_active":false,"is_expired":"1","days_remaining":12,"status":"archived","urgency":"normal","archived":"1","primary_category":"Digital & Technology","secondary_categories":[],"classification_confidence":null,"classification_reasoning":[],"is_user_corrected":false,"user_corrected_by":null,"user_corrected_at":null,"classified_at":null,"is_ambiguous_category":false,"emerging_terms_found":[]}],"timestamp":"2025-11-26T01:45:17.435Z","pagination":{"page":1,"limit":1,"total":17292,"totalPages":17292}}